<?xml version="1.0" encoding="iso-8859-1"?>
<!-- Generator: Adobe Illustrator 19.0.0, SVG Export Plug-In . SVG Version: 6.00 Build 0)  -->
<svg version="1.1" id="Capa_1" xmlns="http://www.w3.org/2000/svg" xmlns:xlink="http://www.w3.org/1999/xlink" x="0px" y="0px"
	 viewBox="0 0 512.002 512.002" style="enable-background:new 0 0 512.002 512.002;" xml:space="preserve">
<path style="fill:#AFB4BC;" d="M302.699,439.924c-2.008,0-4.012-0.801-5.489-2.387c-2.826-3.031-2.66-7.779,0.371-10.604
	l40.961-38.193h-34.906c-3.035,0-5.771-1.828-6.932-4.632s-0.519-6.031,1.627-8.177l41.147-41.147h-36.265
	c-3.011,0-5.73-1.8-6.906-4.57c-1.177-2.771-0.584-5.976,1.507-8.143l42.113-43.645h-37.281c-3.035,0-5.771-1.828-6.932-4.632
	s-0.519-6.031,1.627-8.177l54.947-54.948c2.93-2.929,7.681-2.929,10.611,0c2.93,2.931,2.93,7.681,0,10.612L320.76,263.42h36.833
	c3.011,0,5.73,1.8,6.906,4.57s0.584,5.976-1.507,8.143l-42.112,43.645h36.713c3.035,0,5.771,1.828,6.932,4.632
	s0.519,6.031-1.627,8.177l-41.147,41.147h35.841c3.082,0,5.852,1.886,6.981,4.753c1.13,2.868,0.39,6.136-1.864,8.238l-54.894,51.184
	C306.368,439.256,304.531,439.924,302.699,439.924z"/>
<g>
	<polygon style="fill:#979FAF;" points="337.749,263.418 337.749,278.425 339.924,278.425 337.749,280.679 337.749,302.292 
		352.755,286.739 352.755,263.418 	"/>
	<path style="fill:#979FAF;" d="M337.749,225.204v21.223l15.007-15.007v-15.447c0-1.631-0.526-3.136-1.41-4.367L337.749,225.204z"/>
	<polygon style="fill:#979FAF;" points="352.755,319.777 337.749,319.777 337.749,334.784 339.476,334.784 337.749,336.511 
		337.749,357.734 352.755,342.727 	"/>
	<polygon style="fill:#979FAF;" points="337.749,409.997 352.755,396.004 352.755,373.733 337.749,373.733 337.749,388.74 
		338.541,388.74 337.749,389.479 	"/>
</g>
<path style="fill:#AFB4BC;" d="M357.591,439.924h-54.894c-4.144,0-7.503-3.359-7.503-7.503V215.974c0-4.144,3.359-7.503,7.503-7.503
	h54.894c4.144,0,7.503,3.359,7.503,7.503v216.447C365.094,436.565,361.735,439.924,357.591,439.924z M310.2,424.917h39.887v-201.44
	H310.2V424.917z"/>
<path style="fill:#FFDC48;" d="M392.722,495.206H268.716v-45.963c0-9.29,7.531-16.822,16.822-16.822h90.363
	c9.29,0,16.822,7.531,16.822,16.822L392.722,495.206L392.722,495.206z"/>
<path style="fill:#FFCE00;" d="M375.901,432.421h-38.286c9.29,0,16.822,7.531,16.822,16.821v45.964h38.286v-45.964
	C392.722,439.952,385.191,432.421,375.901,432.421z"/>
<g>
	<path style="fill:#AFB4BC;" d="M357.591,132.524h-54.894c-2.315,0-4.501-1.069-5.922-2.896c-1.422-1.827-1.92-4.208-1.351-6.452
		l27.447-108.223c0.844-3.329,3.84-5.659,7.273-5.659c3.434,0,6.429,2.33,7.273,5.659l27.447,108.223
		c0.569,2.244,0.07,4.625-1.351,6.452C362.091,131.455,359.906,132.524,357.591,132.524z M312.341,117.517h35.606l-17.803-70.198
		L312.341,117.517z"/>
	<path style="fill:#AFB4BC;" d="M76.638,194.42c-4.144,0-7.503-3.359-7.503-7.503v-36.469c0-4.144,3.359-7.503,7.503-7.503
		s7.503,3.359,7.503,7.503v36.469C84.142,191.061,80.782,194.42,76.638,194.42z"/>
</g>
<path style="fill:#585A6A;" d="M502.527,502.709H8.113c-4.144,0-7.503-3.359-7.503-7.503c0-4.144,3.359-7.503,7.503-7.503h494.414
	c4.144,0,7.503,3.359,7.503,7.503S506.671,502.709,502.527,502.709z"/>
<path style="fill:#AFB4BC;" d="M107.195,194.42c-4.144,0-7.503-3.359-7.503-7.503v-35.14c0-4.144,3.359-7.503,7.503-7.503
	s7.503,3.359,7.503,7.503v35.14C114.698,191.061,111.339,194.42,107.195,194.42z"/>
<path style="fill:#585A6A;" d="M116.55,150.448H66.265c-2.568,0-4.65-2.082-4.65-4.65V125.02H121.2v20.778
	C121.2,148.366,119.118,150.448,116.55,150.448z"/>
<path style="fill:#4A4C5F;" d="M99.691,125.02v20.778c0,2.568-2.082,4.649-4.65,4.649h21.508c2.568,0,4.65-2.082,4.65-4.649V125.02
	H99.691z"/>
<path style="fill:#AFB4BC;" d="M284.93,132.524H7.504c-2.891,0-5.526-1.662-6.772-4.271c-1.246-2.61-0.881-5.703,0.937-7.951
	l34.63-42.815c1.425-1.761,3.569-2.784,5.834-2.784h208.165c2.265,0,4.409,1.023,5.834,2.784l34.63,42.815
	c1.819,2.248,2.184,5.341,0.938,7.951C290.456,130.862,287.821,132.524,284.93,132.524z M23.224,117.517h245.987l-22.493-27.808
	H45.716L23.224,117.517z"/>
<path style="fill:#585A6A;" d="M91.77,283.797c-4.805,0-9.486-1.837-12.993-5.134c-3.793-3.564-5.968-8.594-5.968-13.797
	c0-4.144,3.359-7.503,7.503-7.503s7.503,3.359,7.503,7.503c0,1.477,0.776,2.428,1.239,2.863c0.462,0.434,1.464,1.136,2.951,1.055
	c1.929-0.12,3.534-1.724,3.653-3.654c0.12-1.924-1.087-3.237-2.156-3.776c-5.715-2.883-9.264-8.588-9.264-14.887v-9.071
	c0-4.144,3.359-7.503,7.503-7.503s7.503,3.359,7.503,7.503v9.071c0,0.602,0.389,1.172,1.017,1.489
	c6.773,3.417,10.846,10.523,10.376,18.105c-0.59,9.501-8.199,17.111-17.701,17.701C92.547,283.786,92.158,283.797,91.77,283.797z"/>
<path style="fill:#FFDC48;" d="M125.146,210.77l-25.155,23.369c-2.253,2.093-5.214,3.256-8.288,3.256l0,0
	c-3.029,0-5.949-1.129-8.191-3.166l-25.805-23.454c-1.013-0.921-1.59-2.226-1.59-3.595v-16.915c0-1.85,1.499-3.349,3.349-3.349
	h63.883c1.85,0,3.349,1.499,3.349,3.349v16.946C126.698,208.562,126.136,209.851,125.146,210.77z"/>
<path style="fill:#FFCE00;" d="M123.349,186.916h-18.598c1.85,0,3.349,1.499,3.349,3.349l0,0c0,12.157-5.06,23.765-13.967,32.039
	l-11.74,10.907l1.048,0.952c0.955,0.868,2.022,1.619,3.201,2.144c4.677,2.084,9.863,1.072,13.351-2.168l25.155-23.369
	c0.989-0.919,1.551-2.209,1.551-3.559v-16.946C126.698,188.415,125.198,186.916,123.349,186.916z"/>
<g>
	<path style="fill:#AFB4BC;" d="M61.617,132.524c-0.232,0-0.465-0.011-0.699-0.032c-2.678-0.25-5.018-1.915-6.132-4.363
		L35.305,85.314c-1.716-3.772-0.05-8.221,3.722-9.937c3.769-1.72,8.22-0.051,9.937,3.721l14.055,30.89l22.587-32.1
		c1.003-1.424,2.471-2.456,4.151-2.917L328.159,9.562c2.108-0.58,4.367-0.21,6.18,1.015l93.324,62.931
		c3.436,2.317,4.343,6.981,2.026,10.417s-6.98,4.342-10.416,2.025l-90.466-61.004L96.327,88.728l-28.575,40.611
		C66.338,131.347,64.043,132.524,61.617,132.524z"/>
	<path style="fill:#AFB4BC;" d="M206.773,132.314c-1.92,0-3.839-0.031-5.304-1.496L163.741,93.09l-37.237,37.237
		c-1.575,1.576-3.768,2.368-5.99,2.166c-2.219-0.203-4.233-1.382-5.497-3.219L85.56,86.459c-2.349-3.414-1.486-8.086,1.929-10.434
		c3.413-2.351,8.085-1.486,10.434,1.929l24.347,35.386l36.166-36.166c2.93-2.929,7.681-2.929,10.611,0l37.728,37.728l38.237-38.238
		c2.146-2.145,5.374-2.787,8.177-1.626c2.804,1.161,4.632,3.897,4.632,6.932v43.033c0,4.144-3.359,7.503-7.503,7.503
		s-7.503-3.359-7.503-7.503v-24.918l-30.734,30.734C210.616,132.282,208.693,132.314,206.773,132.314z"/>
	<path style="fill:#AFB4BC;" d="M423.467,132.515H315.562c-4.144,0-7.503-3.359-7.503-7.503s3.359-7.503,7.503-7.503h107.906
		c4.144,0,7.503,3.359,7.503,7.503C430.971,129.156,427.611,132.515,423.467,132.515z"/>
</g>
<path style="fill:#FFDC48;" d="M503.044,179.107h-78.289c-4.947,0-8.957-4.01-8.957-8.957V79.28c0-4.507,3.653-8.16,8.16-8.16
	h78.818c5.095,0,9.226,4.131,9.226,9.226v89.803C512.001,175.096,507.991,179.107,503.044,179.107z"/>
<path style="fill:#FFCE00;" d="M502.775,71.12h-31.347c5.095,0,9.226,4.131,9.226,9.226v89.534c0,5.096-4.131,9.226-9.226,9.226
	h31.604c4.954,0,8.969-4.016,8.969-8.969V80.346C512.001,75.251,507.87,71.12,502.775,71.12z"/>
<path style="fill:#585A6A;" d="M503.044,179.107h-78.289c-4.947,0-8.957-4.01-8.957-8.957v-37.626h96.203v37.626
	C512.001,175.096,507.991,179.107,503.044,179.107z"/>
<path style="fill:#4A4C5F;" d="M480.654,169.88c0,5.096-4.131,9.226-9.226,9.226h31.604c4.954,0,8.97-4.011,8.97-8.964
	c0-8.889,0-23.1,0-37.618h-31.347L480.654,169.88L480.654,169.88z"/>
<path style="fill:#FF8D27;" d="M365.094,227.282h-51.426c-9.414,0-18.363-4.097-24.514-11.224l-10.24-11.864
	c-1-1.955-1.516-4.062-1.516-6.19v-80.495h87.696L365.094,227.282L365.094,227.282z"/>
<rect x="338.991" y="117.511" style="fill:#FF7610;" width="26.11" height="109.77"/>
<g>
	<rect x="69.131" y="150.451" style="fill:#979FAF;" width="15.02" height="15.02"/>
	<rect x="99.691" y="150.451" style="fill:#979FAF;" width="15.02" height="15.02"/>
	<polygon style="fill:#979FAF;" points="148.31,74.466 200.92,60.032 144.203,60.032 91.594,74.466 	"/>
	<polygon style="fill:#979FAF;" points="359.903,103.613 344.421,103.613 347.947,117.517 363.429,117.517 	"/>
	<polygon style="fill:#979FAF;" points="296.859,117.517 312.341,117.517 315.867,103.613 300.385,103.613 	"/>
	<rect x="401.261" y="117.511" style="fill:#979FAF;" width="14.533" height="15.02"/>
	<rect x="365.091" y="117.511" style="fill:#979FAF;" width="14.533" height="15.02"/>
</g>
<g>
</g>
<g>
</g>
<g>
</g>
<g>
</g>
<g>
</g>
<g>
</g>
<g>
</g>
<g>
</g>
<g>
</g>
<g>
</g>
<g>
</g>
<g>
</g>
<g>
</g>
<g>
</g>
<g>
</g>
</svg>
