<?xml version="1.0" encoding="iso-8859-1"?>
<!-- Generator: Adobe Illustrator 19.0.0, SVG Export Plug-In . SVG Version: 6.00 Build 0)  -->
<svg version="1.1" id="Capa_1" xmlns="http://www.w3.org/2000/svg" xmlns:xlink="http://www.w3.org/1999/xlink" x="0px" y="0px"
	 viewBox="0 0 468.293 468.293" style="enable-background:new 0 0 468.293 468.293;" xml:space="preserve">
<rect x="193.399" y="239.547" style="fill:#3A556A;" width="231.337" height="30.208"/>
<g>
	<rect x="170.508" y="226.672" style="fill:#DC8744;" width="277.104" height="25.744"/>
	<rect x="170.508" y="190.37" style="fill:#DC8744;" width="277.104" height="25.744"/>
	<rect x="170.508" y="154.037" style="fill:#DC8744;" width="277.104" height="25.744"/>
</g>
<g>
	<path style="fill:#F7BE56;" d="M389.037,145.843h-9.294c-2.707,0-4.914,2.207-4.914,4.914v104.972c0,2.707,2.207,4.914,4.914,4.914
		h9.294c2.695,0,4.914-2.207,4.914-4.914V150.757C393.951,148.05,391.732,145.843,389.037,145.843z"/>
	<path style="fill:#F7BE56;" d="M247.959,145.843h-9.294c-2.695,0-4.914,2.207-4.914,4.914v104.972c0,2.707,2.219,4.914,4.914,4.914
		h9.294c2.707,0,4.914-2.207,4.914-4.914V150.757C252.873,148.05,250.666,145.843,247.959,145.843z"/>
	<path style="fill:#F7BE56;" d="M318.498,145.843h-9.294c-2.707,0-4.914,2.207-4.914,4.914v104.972c0,2.707,2.207,4.914,4.914,4.914
		h9.294c2.707,0,4.914-2.207,4.914-4.914V150.757C323.412,148.05,321.205,145.843,318.498,145.843z"/>
	<path style="fill:#F7BE56;" d="M177.42,145.843h-9.294c-2.695,0-4.914,2.207-4.914,4.914v104.972c0,2.707,2.219,4.914,4.914,4.914
		h9.294c2.707,0,4.914-2.207,4.914-4.914V150.757C182.334,148.05,180.127,145.843,177.42,145.843z"/>
	<path style="fill:#F7BE56;" d="M450.017,145.843h-9.294c-2.701,0-4.911,2.21-4.911,4.911V255.73c0,2.701,2.21,4.911,4.911,4.911
		h9.294c2.701,0,4.911-2.21,4.911-4.911V150.754C454.928,148.053,452.718,145.843,450.017,145.843z"/>
</g>
<path style="fill:#64798A;" d="M468.293,266.205v34.234c0,5.352-4.339,9.691-9.691,9.691H131.857v-43.925H468.293z"/>
<path style="fill:#D15241;" d="M154.485,310.153H10.394C4.677,310.153,0,305.475,0,299.759v-32.352l8.446-3.573
	c0,0-2.794-65.094,10.069-94.653c2.144-5.002,7.081-8.186,12.538-8.186h123.432V310.153L154.485,310.153z"/>
<path style="fill:#27A2DB;" d="M28.155,184.959c-3.072,12.329-4.794,29.319-5.47,46.014h78.55v-46.014H28.155z"/>
<g>
	<path style="fill:#D5D6DB;" d="M15.272,286.016h21.602c2.942,0,5.326-2.385,5.326-5.326s-2.385-5.326-5.326-5.326H15.272
		c-2.942,0-5.326,2.385-5.326,5.326S12.33,286.016,15.272,286.016z"/>
	<path style="fill:#D5D6DB;" d="M36.873,291.49H15.272c-2.942,0-5.326,2.385-5.326,5.326s2.385,5.326,5.326,5.326h21.602
		c2.942,0,5.326-2.385,5.326-5.326S39.815,291.49,36.873,291.49z"/>
</g>
<path style="fill:#64798A;" d="M446.561,305.017c0,1.74-0.124,3.444-0.373,5.113h-69.794c-0.248-1.669-0.373-3.373-0.373-5.113
	c0-19.442,15.837-35.261,35.279-35.261S446.561,285.575,446.561,305.017z"/>
<path style="fill:#2F4859;" d="M379.578,305.021c0,17.529,14.191,31.72,31.724,31.72c17.526,0,31.717-14.191,31.717-31.72
	s-14.191-31.718-31.717-31.718C393.768,273.302,379.578,287.491,379.578,305.021z"/>
<path style="fill:#64798A;" d="M391.055,304.905c0,11.227,9.126,20.35,20.353,20.35c10.993,0,20.113-9.123,20.113-20.35
	c0-11.227-9.12-20.116-20.113-20.116C400.18,284.788,391.055,293.677,391.055,304.905z"/>
<path style="fill:#EBF0F3;" d="M391.055,304.9c0,1.596,0.145,3.12,0.579,4.571c2.758-0.58,5.587,0.218,7.11,2.83
	c1.451,2.54,0.799,5.514-1.16,7.546c2.177,2.031,4.788,3.555,7.691,4.498c0.797-2.685,3.047-4.789,6.023-4.789
	c2.974,0,5.222,2.104,6.021,4.862c2.903-0.943,5.514-2.467,7.691-4.571c-1.959-2.032-2.613-4.934-1.16-7.546
	c1.523-2.612,4.352-3.41,7.11-2.83c0.434-1.451,0.579-2.975,0.579-4.571c0-1.524-0.145-2.975-0.508-4.354
	c-2.756,0.653-5.658-0.217-7.181-2.757c-1.525-2.612-0.799-5.659,1.16-7.691c-2.177-1.959-4.788-3.483-7.691-4.426
	c-0.87,2.757-3.047,4.861-6.021,4.861c-2.976,0-5.153-2.104-6.023-4.789c-2.976,0.943-5.587,2.467-7.764,4.426
	c2.032,2.104,2.684,5.079,1.233,7.618c-1.451,2.467-4.425,3.338-7.183,2.757C391.201,301.925,391.055,303.376,391.055,304.9z"/>
<path style="fill:#64798A;" d="M357.467,305.017c0,1.74-0.124,3.444-0.373,5.113H287.3c-0.248-1.669-0.373-3.373-0.373-5.113
	c0-19.442,15.819-35.261,35.261-35.261C341.648,269.756,357.467,285.575,357.467,305.017z"/>
<path style="fill:#2F4859;" d="M290.471,305.021c0,17.529,14.191,31.72,31.724,31.72c17.526,0,31.717-14.191,31.717-31.72
	s-14.191-31.718-31.717-31.718C304.661,273.302,290.471,287.491,290.471,305.021z"/>
<path style="fill:#64798A;" d="M301.948,304.905c0,11.227,9.126,20.35,20.353,20.35c10.993,0,20.113-9.123,20.113-20.35
	c0-11.227-9.12-20.116-20.113-20.116C311.074,284.788,301.948,293.677,301.948,304.905z"/>
<path style="fill:#EBF0F3;" d="M301.948,304.9c0,1.596,0.145,3.12,0.579,4.571c2.758-0.58,5.587,0.218,7.11,2.83
	c1.451,2.54,0.799,5.514-1.16,7.546c2.177,2.031,4.788,3.555,7.691,4.498c0.797-2.685,3.047-4.789,6.023-4.789
	c2.974,0,5.222,2.104,6.021,4.862c2.903-0.943,5.514-2.467,7.691-4.571c-1.959-2.032-2.613-4.934-1.16-7.546
	c1.523-2.612,4.352-3.41,7.11-2.83c0.434-1.451,0.579-2.975,0.579-4.571c0-1.524-0.145-2.975-0.508-4.354
	c-2.756,0.653-5.658-0.217-7.181-2.757c-1.525-2.612-0.799-5.659,1.16-7.691c-2.177-1.959-4.788-3.483-7.691-4.426
	c-0.87,2.757-3.047,4.861-6.021,4.861c-2.976,0-5.153-2.104-6.023-4.789c-2.976,0.943-5.587,2.467-7.764,4.426
	c2.032,2.104,2.684,5.079,1.233,7.618c-1.451,2.467-4.425,3.338-7.183,2.757C302.094,301.925,301.948,303.376,301.948,304.9z"/>
<path style="fill:#64798A;" d="M143.522,305.017c0,1.74-0.124,3.444-0.373,5.113H73.355c-0.249-1.669-0.373-3.373-0.373-5.113
	c0-19.442,15.819-35.261,35.261-35.261c9.073,0,17.347,3.444,23.614,9.073C139.013,285.291,143.522,294.63,143.522,305.017z"/>
<path style="fill:#2F4859;" d="M76.526,305.021c0,17.529,14.191,31.72,31.724,31.72c17.526,0,31.717-14.191,31.717-31.72
	s-14.191-31.718-31.717-31.718C90.716,273.302,76.526,287.491,76.526,305.021z"/>
<path style="fill:#64798A;" d="M88.003,304.905c0,11.227,9.126,20.35,20.353,20.35c10.993,0,20.113-9.123,20.113-20.35
	c0-11.227-9.12-20.116-20.113-20.116C97.128,284.788,88.003,293.677,88.003,304.905z"/>
<path style="fill:#EBF0F3;" d="M88.003,304.9c0,1.596,0.145,3.12,0.579,4.571c2.758-0.58,5.587,0.218,7.11,2.83
	c1.451,2.54,0.799,5.514-1.16,7.546c2.177,2.031,4.788,3.555,7.691,4.498c0.797-2.685,3.047-4.789,6.023-4.789
	c2.974,0,5.222,2.104,6.021,4.862c2.903-0.943,5.514-2.467,7.691-4.571c-1.959-2.032-2.613-4.934-1.16-7.546
	c1.523-2.612,4.352-3.41,7.11-2.83c0.434-1.451,0.579-2.975,0.579-4.571c0-1.524-0.145-2.975-0.508-4.354
	c-2.756,0.653-5.658-0.217-7.181-2.757c-1.525-2.612-0.799-5.659,1.16-7.691c-2.177-1.959-4.788-3.483-7.691-4.426
	c-0.87,2.757-3.047,4.861-6.021,4.861c-2.976,0-5.153-2.104-6.023-4.789c-2.976,0.943-5.587,2.467-7.764,4.426
	c2.032,2.104,2.684,5.079,1.233,7.618c-1.451,2.467-4.425,3.338-7.183,2.757C88.149,301.925,88.003,303.376,88.003,304.9z"/>
<path style="fill:#E56353;" d="M97.357,131.552c-21.517,0-41.499,11.141-52.812,29.443h75.976v-29.443H97.357z"/>
<path style="fill:#D5D6DB;" d="M247.158,292.918h-59.551c-10.091,0-18.271,8.181-18.271,18.271c0,10.091,8.18,18.271,18.271,18.271
	h59.551c10.091,0,18.271-8.18,18.271-18.271C265.429,301.099,257.249,292.918,247.158,292.918z"/>
<rect x="191.438" y="292.901" style="fill:#E1E6E9;" width="51.843" height="36.577"/>
<g>
</g>
<g>
</g>
<g>
</g>
<g>
</g>
<g>
</g>
<g>
</g>
<g>
</g>
<g>
</g>
<g>
</g>
<g>
</g>
<g>
</g>
<g>
</g>
<g>
</g>
<g>
</g>
<g>
</g>
</svg>
